,date,city,rent,product
0,2022-01-01,Aydın,17,1726
1,2022-01-02,Düzce,11,1056
2,2022-01-03,Sinop,9,1770
3,2022-01-04,Adana,10,1788
4,2022-01-05,Balıkesir,10,1329
5,2022-01-06,Hakkari,6,1500
6,2022-01-07,Yalova,16,1223
7,2022-01-08,Isparta,15,1973
8,2022-01-09,Ağrı,10,1760
9,2022-01-10,Niğde,5,1226
10,2022-01-11,Karaman,13,1345
11,2022-01-12,Antalya,9,1582
12,2022-01-13,Balıkesir,5,1914
13,2022-01-14,Batman,15,1144
14,2022-01-15,Kırşehir,8,1586
15,2022-01-16,Giresun,2,1625
16,2022-01-17,Edirne,16,1835
17,2022-01-18,Kahramanmaraş,14,1194
18,2022-01-19,Afyon,6,1107
19,2022-01-20,Ağrı,6,1591
20,2022-01-21,Aydın,11,1356
21,2022-01-22,Iğdır,8,1240
22,2022-01-23,Konya,5,1390
23,2022-01-24,Kırşehir,12,1172
24,2022-01-25,Bayburt,10,1129
25,2022-01-26,Afyon,3,1394
26,2022-01-27,Yozgat,14,1527
27,2022-01-28,Kütahya,2,1365
28,2022-01-29,Bitlis,10,1170
29,2022-01-30,Bilecik,13,1175
30,2022-01-31,Uşak,7,1980
31,2022-02-01,Kütahya,11,1543
32,2022-02-02,Kahramanmaraş,1,1472
33,2022-02-03,Adıyaman,1,1495
34,2022-02-04,Aksaray,14,1112
35,2022-02-05,İçel (Mersin),6,1761
36,2022-02-06,Kütahya,13,1205
37,2022-02-07,Ağrı,1,1185
38,2022-02-08,Ardahan,3,1140
39,2022-02-09,Tunceli,10,1622
40,2022-02-10,Bilecik,10,1275
41,2022-02-11,Gaziantep,12,1510
42,2022-02-12,Ankara,1,1279
43,2022-02-13,Kahramanmaraş,1,1106
44,2022-02-14,Elazığ,6,1622
45,2022-02-15,Rize,6,1974
46,2022-02-16,Trabzon,9,1865
47,2022-02-17,Yozgat,7,1569
48,2022-02-18,Düzce,7,1790
49,2022-02-19,Mardin,5,1005
50,2022-02-20,Manisa,10,1105
51,2022-02-21,Elazığ,17,1488
52,2022-02-22,Çorum,16,1467
53,2022-02-23,Kayseri,6,1136
54,2022-02-24,Bartın,2,1578
55,2022-02-25,Isparta,13,1647
56,2022-02-26,İzmir,14,1443
57,2022-02-27,Eskişehir,1,1461
58,2022-02-28,Van,17,1617
59,2022-03-01,Burdur,10,1482
60,2022-03-02,Rize,12,1578
61,2022-03-03,Ardahan,6,1027
62,2022-03-04,Bolu,3,1799
63,2022-03-05,Kırıkkale,6,1406
64,2022-03-06,Adana,7,1568
65,2022-03-07,Erzincan,13,1192
66,2022-03-08,İçel (Mersin),4,1770
67,2022-03-09,Zonguldak,1,1078
68,2022-03-10,Bilecik,11,1558
69,2022-03-11,Çorum,1,1568
70,2022-03-12,Amasya,4,1508
71,2022-03-13,Osmaniye,17,1593
72,2022-03-14,Erzurum,2,1785
73,2022-03-15,Muş,4,1634
74,2022-03-16,Batman,13,1213
75,2022-03-17,Bingöl,14,1265
76,2022-03-18,Bingöl,11,1261
77,2022-03-19,Eskişehir,7,1852
78,2022-03-20,Nevşehir,9,1762
79,2022-03-21,Kocaeli,11,1406
80,2022-03-22,Afyon,12,1751
81,2022-03-23,Muş,6,1660
82,2022-03-24,Karaman,8,1471
83,2022-03-25,Yozgat,7,1589
84,2022-03-26,Kırıkkale,11,1802
85,2022-03-27,Gaziantep,15,1310
86,2022-03-28,Kırşehir,7,1126
87,2022-03-29,Yozgat,11,1793
88,2022-03-30,Iğdır,16,1768
89,2022-03-31,Karaman,16,1983
90,2022-04-01,Antalya,6,1348
91,2022-04-02,Çorum,10,1799
92,2022-04-03,Isparta,8,1629
93,2022-04-04,Kahramanmaraş,16,1507
94,2022-04-05,Hatay,7,1074
95,2022-04-06,Mardin,17,1257
96,2022-04-07,Iğdır,1,1911
97,2022-04-08,Karabük,16,1331
98,2022-04-09,Denizli,12,1623
99,2022-04-10,Elazığ,8,1518
100,2022-04-11,Kilis,9,1594
101,2022-04-12,Kilis,7,1218
102,2022-04-13,Hatay,13,1384
103,2022-04-14,Gaziantep,1,1155
104,2022-04-15,Afyon,12,1199
105,2022-04-16,Gaziantep,1,1759
106,2022-04-17,Samsun,12,1319
107,2022-04-18,Uşak,13,1602
108,2022-04-19,Giresun,17,1586
109,2022-04-20,Erzurum,3,1234
110,2022-04-21,Trabzon,11,1092
111,2022-04-22,Tunceli,4,1675
112,2022-04-23,Kilis,6,1505
113,2022-04-24,Yalova,17,1431
114,2022-04-25,Antalya,6,1396
115,2022-04-26,Giresun,2,1410
116,2022-04-27,Yalova,2,1324
117,2022-04-28,Edirne,9,1557
118,2022-04-29,Niğde,11,1206
119,2022-04-30,Niğde,8,1210
120,2022-05-01,Kırıkkale,6,1642
121,2022-05-02,Çorum,17,1733
122,2022-05-03,Kars,6,1483
123,2022-05-04,Denizli,11,1078
124,2022-05-05,Edirne,14,1898
125,2022-05-06,Isparta,11,1683
126,2022-05-07,Erzincan,17,1269
127,2022-05-08,Aksaray,10,1529
128,2022-05-09,Karaman,10,1155
129,2022-05-10,Nevşehir,7,1867
130,2022-05-11,Rize,9,1345
131,2022-05-12,Yalova,5,1967
132,2022-05-13,Kırıkkale,6,1204
133,2022-05-14,Düzce,5,1104
134,2022-05-15,Erzurum,14,1094
135,2022-05-16,İstanbul,7,1249
136,2022-05-17,Eskişehir,8,1335
137,2022-05-18,Eskişehir,1,1052
138,2022-05-19,Bolu,14,1924
139,2022-05-20,Konya,16,1478
140,2022-05-21,Muş,10,1856
141,2022-05-22,Adana,1,1892
142,2022-05-23,Balıkesir,11,1778
143,2022-05-24,Karabük,11,1334
144,2022-05-25,Erzincan,12,1224
145,2022-05-26,Ardahan,11,1055
146,2022-05-27,Adıyaman,4,1963
147,2022-05-28,Çankırı,17,1943
148,2022-05-29,Kırşehir,13,1113
149,2022-05-30,Ardahan,3,1490
150,2022-05-31,Elazığ,10,1137
151,2022-06-01,Sakarya,6,1377
152,2022-06-02,Sivas,6,1748
153,2022-06-03,Şanlıurfa,5,1147
154,2022-06-04,Karaman,8,1766
155,2022-06-05,Elazığ,7,1824
156,2022-06-06,Bingöl,7,1446
157,2022-06-07,İstanbul,14,1325
158,2022-06-08,Tekirdağ,13,1767
159,2022-06-09,Bartın,2,1292
160,2022-06-10,Osmaniye,10,1140
161,2022-06-11,Düzce,3,1363
162,2022-06-12,Gümüşhane,14,1523
163,2022-06-13,Ordu,15,1783
164,2022-06-14,Tekirdağ,7,1831
165,2022-06-15,Bingöl,12,1766
166,2022-06-16,İstanbul,6,1257
167,2022-06-17,Ardahan,2,1084
168,2022-06-18,Yalova,12,1533
169,2022-06-19,Çorum,17,1048
170,2022-06-20,Burdur,15,1121
171,2022-06-21,Eskişehir,9,1413
172,2022-06-22,Kırklareli,8,1007
173,2022-06-23,Trabzon,16,1440
174,2022-06-24,Kütahya,7,1252
175,2022-06-25,Bursa,9,1511
176,2022-06-26,Hatay,15,1610
177,2022-06-27,Sakarya,13,1356
178,2022-06-28,Bayburt,9,1118
179,2022-06-29,Manisa,3,1490
180,2022-06-30,Ordu,4,1478
181,2022-07-01,Düzce,14,1451
182,2022-07-02,Van,5,1812
183,2022-07-03,Bartın,9,1426
184,2022-07-04,Burdur,2,1926
185,2022-07-05,Kocaeli,16,1409
186,2022-07-06,Ankara,12,1931
187,2022-07-07,Zonguldak,7,1260
188,2022-07-08,Yalova,13,1035
189,2022-07-09,Denizli,15,1571
190,2022-07-10,Yalova,14,1777
191,2022-07-11,Zonguldak,1,1956
192,2022-07-12,Muş,3,1931
193,2022-07-13,Karabük,2,1406
194,2022-07-14,İçel (Mersin),4,1933
195,2022-07-15,Kocaeli,12,1509
196,2022-07-16,İçel (Mersin),12,1240
197,2022-07-17,Tunceli,12,1135
198,2022-07-18,Kırklareli,15,1866
199,2022-07-19,Bingöl,11,1174
200,2022-07-20,Erzincan,2,1848
201,2022-07-21,Sakarya,10,1931
202,2022-07-22,Diyarbakır,4,1733
203,2022-07-23,Gümüşhane,13,1110
204,2022-07-24,Osmaniye,13,1336
205,2022-07-25,Kars,6,1905
206,2022-07-26,Kastamonu,11,1971
207,2022-07-27,Adıyaman,5,1537
208,2022-07-28,Malatya,13,1872
209,2022-07-29,Zonguldak,13,1917
210,2022-07-30,Hakkari,4,1047
211,2022-07-31,Karaman,11,1277
212,2022-08-01,Malatya,13,1444
213,2022-08-02,Karaman,16,1533
214,2022-08-03,Kırklareli,2,1968
215,2022-08-04,Gümüşhane,3,1450
216,2022-08-05,Kayseri,3,1487
217,2022-08-06,Kocaeli,6,1979
218,2022-08-07,Hatay,17,1861
219,2022-08-08,Zonguldak,16,1731
220,2022-08-09,İçel (Mersin),15,1520
221,2022-08-10,Osmaniye,15,1945
222,2022-08-11,Uşak,9,1939
223,2022-08-12,Kahramanmaraş,7,1757
224,2022-08-13,Gümüşhane,9,1376
225,2022-08-14,Uşak,2,1628
226,2022-08-15,Bayburt,3,1595
227,2022-08-16,Gaziantep,8,1056
228,2022-08-17,Bingöl,13,1604
229,2022-08-18,Kırklareli,5,1129
230,2022-08-19,Manisa,2,1259
231,2022-08-20,Bartın,8,1448
232,2022-08-21,Bolu,5,1482
233,2022-08-22,Gümüşhane,14,1854
234,2022-08-23,Kastamonu,8,1465
235,2022-08-24,Aksaray,5,1844
236,2022-08-25,Muş,8,1806
237,2022-08-26,Afyon,15,1368
238,2022-08-27,Balıkesir,8,1413
239,2022-08-28,Ardahan,13,1805
240,2022-08-29,Adana,9,1850
241,2022-08-30,Çorum,6,1540
242,2022-08-31,Kırıkkale,10,1749
243,2022-09-01,Gaziantep,8,1065
244,2022-09-02,Şanlıurfa,13,1682
245,2022-09-03,İstanbul,10,1180
246,2022-09-04,Hatay,12,1411
247,2022-09-05,Hakkari,4,1728
248,2022-09-06,Sakarya,2,1362
249,2022-09-07,Hatay,17,1643
250,2022-09-08,Çorum,4,1729
251,2022-09-09,Hatay,15,1505
252,2022-09-10,Artvin,5,1728
253,2022-09-11,Artvin,9,1036
254,2022-09-12,Diyarbakır,13,1598
255,2022-09-13,Niğde,1,1288
256,2022-09-14,Bilecik,15,1954
257,2022-09-15,Ardahan,4,1547
258,2022-09-16,Malatya,8,1182
259,2022-09-17,Osmaniye,4,1216
260,2022-09-18,Çanakkale,10,1129
261,2022-09-19,Gümüşhane,2,1290
262,2022-09-20,Kocaeli,8,1068
263,2022-09-21,Trabzon,1,1437
264,2022-09-22,Nevşehir,9,1622
265,2022-09-23,Kahramanmaraş,16,1299
266,2022-09-24,Isparta,9,1513
267,2022-09-25,Erzincan,5,1183
268,2022-09-26,Bitlis,4,1731
269,2022-09-27,Adana,8,1918
270,2022-09-28,Ağrı,6,1755
271,2022-09-29,Düzce,9,1863
272,2022-09-30,Eskişehir,4,1346
273,2022-10-01,Çanakkale,11,1617
274,2022-10-02,Bartın,11,1818
275,2022-10-03,Malatya,6,1692
276,2022-10-04,Erzincan,7,1712
277,2022-10-05,Kocaeli,2,1471
278,2022-10-06,İzmir,13,1866
279,2022-10-07,Şırnak,1,1699
280,2022-10-08,Mardin,16,1738
281,2022-10-09,Hakkari,9,1705
282,2022-10-10,Bitlis,16,1040
283,2022-10-11,Adana,15,1093
284,2022-10-12,Muğla,16,1153
285,2022-10-13,Konya,14,1077
286,2022-10-14,Antalya,14,1285
287,2022-10-15,Şırnak,12,1636
288,2022-10-16,Hatay,6,1548
289,2022-10-17,Sakarya,8,1848
290,2022-10-18,Kırıkkale,8,1008
291,2022-10-19,Şırnak,12,1096
292,2022-10-20,Adana,7,1328
293,2022-10-21,Nevşehir,7,1096
294,2022-10-22,Düzce,10,1176
295,2022-10-23,Malatya,9,1934
296,2022-10-24,Kars,10,1021
297,2022-10-25,Zonguldak,7,1098
298,2022-10-26,Samsun,16,1473
299,2022-10-27,Tekirdağ,15,1367
300,2022-10-28,Nevşehir,4,1649
301,2022-10-29,Çorum,1,1790
302,2022-10-30,Karaman,8,1386
303,2022-10-31,Samsun,7,1127
304,2022-11-01,Aksaray,4,1050
305,2022-11-02,Kırklareli,5,1646
306,2022-11-03,Mardin,16,1294
307,2022-11-04,Bartın,7,1982
308,2022-11-05,Iğdır,2,1320
309,2022-11-06,Erzincan,10,1788
310,2022-11-07,Hakkari,16,1154
311,2022-11-08,Kırklareli,9,1231
312,2022-11-09,İstanbul,15,1623
313,2022-11-10,Balıkesir,11,1650
314,2022-11-11,Karaman,16,1633
315,2022-11-12,Eskişehir,5,1598
316,2022-11-13,Hakkari,16,1145
317,2022-11-14,Ankara,9,1805
318,2022-11-15,Van,16,1302
319,2022-11-16,Sakarya,1,1169
320,2022-11-17,Sakarya,9,1771
321,2022-11-18,Osmaniye,3,1373
322,2022-11-19,Bolu,16,1212
323,2022-11-20,Ağrı,4,1700
324,2022-11-21,Adıyaman,16,1014
325,2022-11-22,Afyon,4,1915
326,2022-11-23,İzmir,8,1785
327,2022-11-24,Denizli,10,1389
328,2022-11-25,Rize,4,1135
329,2022-11-26,Bitlis,16,1244
330,2022-11-27,Bayburt,14,1065
331,2022-11-28,Rize,16,1973
332,2022-11-29,Zonguldak,16,1567
333,2022-11-30,Afyon,7,1652
334,2022-12-01,Adıyaman,8,1168
335,2022-12-02,Kırıkkale,16,1654
336,2022-12-03,Sakarya,5,1035
337,2022-12-04,Kastamonu,13,1146
338,2022-12-05,Mardin,12,1106
339,2022-12-06,İçel (Mersin),6,1512
340,2022-12-07,Afyon,8,1830
341,2022-12-08,Trabzon,5,1577
342,2022-12-09,Kütahya,11,1967
343,2022-12-10,Trabzon,4,1327
344,2022-12-11,Kütahya,5,1018
345,2022-12-12,Kırklareli,2,1226
346,2022-12-13,Samsun,17,1630
347,2022-12-14,Burdur,15,1753
348,2022-12-15,Gaziantep,10,1647
349,2022-12-16,Aydın,16,1030
350,2022-12-17,Bursa,10,1584
351,2022-12-18,Tunceli,13,1897
352,2022-12-19,Sakarya,4,1701
353,2022-12-20,Isparta,11,1125
354,2022-12-21,Bolu,3,1505
355,2022-12-22,Karaman,13,1400
356,2022-12-23,Çanakkale,13,1642
357,2022-12-24,Kahramanmaraş,8,1162
358,2022-12-25,Siirt,6,1087
359,2022-12-26,Gaziantep,14,1085
360,2022-12-27,Kilis,5,1781
361,2022-12-28,Şırnak,4,1106
362,2022-12-29,Muş,1,1144
363,2022-12-30,Malatya,1,1013
